Name,WeightClassKg,Division,Sex,Best3SquatKg,Best3BenchKg,Best3DeadliftKg,TotalKg,Event,Equipment,Place
Mark Shijo,52,Open,M,152.5,77.5,172.5,402.5,SBD,Single-ply,1
Mary Ryan-Jeffrey,52,Open,F,100,70,117.5,287.5,SBD,Single-ply,2
Stella Martinez,52,Open,F,100,52.5,115,267.5,SBD,Single-ply,3
Mary-Ann Price,52,Open,F,87.5,52.5,107.5,247.5,SBD,Single-ply,4
L. Venturino,52,Open,F,92.5,47.5,102.5,242.5,SBD,Single-ply,5
J. Sanger,52,Open,M,82.5,42.5,107.5,232.5,SBD,Single-ply,6
Louise Chen,52,Open,F,60,37.5,85,182.5,SBD,Single-ply,7
S. Jaruis,52,Open,M,60,37.5,85,182.5,SBD,Single-ply,8
Cherie Ennis,56,Open,F,97.5,70,125,292.5,SBD,Single-ply,1
Peggy Russell,56,Open,F,112.5,67.5,110,290,SBD,Single-ply,2
L. Serrano,56,Open,M,82.5,47.5,115,245,SBD,Single-ply,3
C. Souza,56,Open,M,77.5,57.5,107.5,242.5,SBD,Single-ply,4
K. Von Schoech,60,Open,M,172.5,115,187.5,475,SBD,Single-ply,1
Gordon Santee,60,Open,M,140,115,185,440,SBD,Single-ply,2
Leia Kawaii,60,Open,F,100,47.5,142.5,290,SBD,Single-ply,3
T. Fahey,67.5,Open,M,187.5,117.5,242.5,547.5,SBD,Single-ply,1
Rich Tsutsui,67.5,Open,M,182.5,155,205,542.5,SBD,Single-ply,2
Joe Kline,67.5,Open,M,197.5,122.5,217.5,537.5,SBD,Single-ply,3
P. Mendez,67.5,Open,M,180,142.5,205,527.5,SBD,Single-ply,4
J. Chow,67.5,Open,M,160,132.5,202.5,495,SBD,Single-ply,5
P. Laranjo,67.5,Open,M,157.5,110,192.5,460,SBD,Single-ply,6
G. Wyatt,67.5,Open,M,145,115,187.5,447.5,SBD,Single-ply,7
T. Singletary,67.5,Open,M,127.5,112.5,187.5,427.5,SBD,Single-ply,8
J. Johnson,67.5,Open,M,110,152.5,147.5,410,SBD,Single-ply,9
R. Granholt,67.5,Open,M,125,112.5,167.5,405,SBD,Single-ply,10
K. Meyer,67.5,Open,M,72.5,55,95,222.5,SBD,Single-ply,11
J. Shephard,67.5,Open,F,-37.5,50,120,,SBD,Single-ply,DQ
Dolph Pierce,75,Open,M,237.5,165,272.5,675,SBD,Single-ply,1
Pete King,75,Open,M,247.5,182.5,222.5,652.5,SBD,Single-ply,2
Robert Taketa,75,Open,M,255,142.5,230,627.5,SBD,Single-ply,3
B. Como,75,Open,M,242.5,142.5,235,620,SBD,Single-ply,4
T. Weinrich,75,Open,M,220,162.5,235,617.5,SBD,Single-ply,5
Richard Cirigliano,75,Open,M,202.5,147.5,220,570,SBD,Single-ply,7
Tony Smerdel,75,Open,M,215,142.5,242.5,600,SBD,Single-ply,6
Dan Buckingham,75,Open,M,147.5,107.5,190,445,SBD,Single-ply,8
A. Jackson,75,Open,M,140,92.5,175,407.5,SBD,Single-ply,9
Meredith Jung,75,Open,F,92.5,87.5,137.5,317.5,SBD,Single-ply,10
G. Ledbetter,75,Open,M,102.5,115,,,SBD,Single-ply,DQ
S. Diaz,75,Open,M,102.5,90,,,SBD,Single-ply,DQ
J. Sullivan,75,Open,M,-230,,,,SBD,Single-ply,DQ
Frank Siebert,75,Open,M,172.5,167.5,-230,,SBD,Single-ply,DQ
Marc Hale,82.5,Open,M,260,150,262.5,672.5,SBD,Single-ply,1
Bill McElwain,82.5,Open,M,205,145,240,590,SBD,Single-ply,2
P. Milligan,82.5,Open,M,210,112.5,237.5,560,SBD,Single-ply,3
P. Salvador,82.5,Open,M,170,92.5,247.5,510,SBD,Single-ply,4
R. Carrasco,82.5,Open,M,170,127.5,202.5,500,SBD,Single-ply,5
Vicky Gagne,82.5,Open,F,185,105,202.5,492.5,SBD,Single-ply,6
T. Jones,82.5,Open,M,137.5,117.5,192.5,447.5,SBD,Single-ply,7
E. Williams,82.5,Open,M,137.5,112.5,,,SBD,Single-ply,DQ
Terry Smerdel,82.5,Open,M,237.5,170,-290,,SBD,Single-ply,DQ
J. Lincoln,82.5,Open,M,227.5,-160,,,SBD,Single-ply,DQ
Ted Mossbarger,82.5,Open,M,-270,,,,SBD,Single-ply,DQ
Bill Ennis,90,Open,M,320,230,315,865,SBD,Single-ply,1
Mike Shines,90,Open,M,242.5,165,290,697.5,SBD,Single-ply,2
Warner Gardner,90,Open,M,245,165,255,665,SBD,Single-ply,3
Michael Musto,90,Open,M,230,155,260,645,SBD,Single-ply,4
R. Marinello,90,Open,M,250,152.5,240,642.5,SBD,Single-ply,5
D. Camacho,90,Open,M,150,137.5,227.5,515,SBD,Single-ply,6
P. Yanez,90,Open,M,180,117.5,182.5,480,SBD,Single-ply,7
Gerald Riley,90,Open,M,222.5,177.5,,,SBD,Single-ply,DQ
R. Yamada,90,Open,M,277.5,-197.5,,,SBD,Single-ply,DQ
Dave Packer,90,Open,M,250,-147.5,,,SBD,Single-ply,DQ
S. Brown,100,Open,M,257.5,177.5,287.5,722.5,SBD,Single-ply,1
A. Hejnal,100,Open,M,260,165,285,710,SBD,Single-ply,2
Ted Hamner,100,Open,M,260,177.5,265,702.5,SBD,Single-ply,3
Rich Caporaso,100,Open,M,240,177.5,275,692.5,SBD,Single-ply,4
K. Yamada,100,Open,M,235,145,245,625,SBD,Single-ply,5
D. Morse,100,Open,M,200,142.5,212.5,555,SBD,Single-ply,6
H. Smith,100,Open,M,215,145,192.5,552.5,SBD,Single-ply,7
K. Pucci,100,Open,M,175,145,192.5,512.5,SBD,Single-ply,8
H. Sander,100,Open,M,182.5,100,185,467.5,SBD,Single-ply,9
Steve Palmer,110,Open,M,322.5,217.5,337.5,877.5,SBD,Single-ply,1
D. Williams,110,Open,M,270,215,317.5,802.5,SBD,Single-ply,2
Bob Morris,110,Open,M,295,192.5,272.5,760,SBD,Single-ply,3
R. McKee,110,Open,M,295,190,272.5,757.5,SBD,Single-ply,4
M. Moore #1,110,Open,M,285,175,262.5,722.5,SBD,Single-ply,5
Gene Kunit,110,Open,M,237.5,165,270,672.5,SBD,Single-ply,6
A. McElroy,110,Open,M,167.5,75,177.5,420,SBD,Single-ply,7
Jeff Lawson,110,Open,M,335,197.5,-302.5,,SBD,Single-ply,DQ
A. Rodriquez,110,Open,M,250,150,-265,,SBD,Single-ply,DQ
W. Robinson,125,Open,M,312.5,210,295,817.5,SBD,Single-ply,1
Manny Burruel,125,Open,M,320,172.5,287.5,780,SBD,Single-ply,2
R. VanUnen,125,Open,M,242.5,182.5,207.5,632.5,SBD,Single-ply,3
